acl 2.3.1-3
adobe-source-code-pro-fonts 2.042u+1.062i+1.026vf-1
adwaita-cursors 44.0-1
adwaita-icon-theme 44.0-1
alsa-lib 1.2.10-2
alsa-topology-conf 1.2.5.1-3
alsa-ucm-conf 1.2.10-2
alsa-utils 1.2.10-1
aom 3.7.0-1
apr 1.7.3-1
apr-util 1.6.3-1
arch-install-scripts 28-1
archlinux-keyring 20230918-1
archlinuxarm-keyring 20140119-2
argon2 20190702-5
at-spi2-core 2.50.0-1
attr 2.5.1-3
audit 3.1.2-1
avahi 1:0.8+r127+g55d783d-1
base 3-1
bash 5.1.016-4
binutils 2.38-5.1
brotli 1.1.0-1
bzip2 1.0.8-5
ca-certificates 20220905-1
ca-certificates-mozilla 3.93-1
ca-certificates-utils 20220905-1
cairo 1.18.0-1
cantarell-fonts 1:0.303.1-1
coreutils 9.3-1
cryptsetup 2.6.1-3
ctwm 4.1.0-1
curl 8.3.0-1
curlftpfs 0.9.2-8
dav1d 1.2.1-1
db 6.2.32-1
db5.3 5.3.28-4
dbus 1.14.10-1
dbus-glib 0.112-3
dconf 0.40.0-2
debootstrap 1.0.132-1
default-cursors 2-1
desktop-file-utils 0.26-2
device-mapper 2.03.22-2
dhcpcd 10.0.2-1
dnssec-anchors 20190629-3
duktape 2.7.0-6
dvisvgm 3.1.1-1
e2fsprogs 1.47.0-1
expat 2.5.0-1
feh 3.10-1
ffmpeg 2:6.0-11
file 5.45-1
filesystem 2023.01-1
findutils 4.9.0-3
firefox 118.0.1-1
flac 1.4.3-1
fltk 1.3.8-2
fontconfig 2:2.14.2-1
freetype2 2.13.2-1
fribidi 1.0.13-2
fuse-common 3.16.1-1
fuse2 2.9.9-4
fuse3 3.16.1-1
gawk 5.2.2-1
gc 8.2.4-1
gcc 12.1.0-2.1
gcc-libs 12.1.0-2.1
gd 2.3.3-7
gdbm 1.23-2
gdk-pixbuf2 2.42.10-2
gettext 0.22.2-1
ghostscript 10.02.0-1
giflib 5.2.1-2
glib-networking 1:2.78.0-1
glib2 2.78.0-2
glibc 2.35-5.1
gmp 6.3.0-1
gnu-free-fonts 20120503-8
gnupg 2.2.41-2
gnutls 3.8.1-1
gperftools 2.13-1
gpgme 1.22.0-1
gpm 1.20.7.r38.ge82d1a6-5
graphite 1:1.3.14-3
grep 3.11-1
groff 1.23.0-5
gsettings-desktop-schemas 44.0-1
gsm 1.0.22-1
gtk-update-icon-cache 1:4.12.3-1
gtk3 1:3.24.38-1
guile 3.0.9-1
gumbo-parser 0.12.1-1
gzip 1.13-2
harfbuzz 8.2.1-1
harfbuzz-icu 8.2.1-1
hicolor-icon-theme 0.17-3
hidapi 0.14.0-2
highway 1.0.7-1
hwdata 0.374-1
iana-etc 20230907-1
icu 73.2-2
ijs 0.35-5
imath 3.1.9-2
imlib2 1.12.1-1
iproute2 6.5.0-1
iptables 1:1.8.9-1
iputils 20221126-2
iso-codes 4.15.0-1
jack2 1.9.22-1
jbig2dec 0.19-1
jbigkit 2.1-7
json-c 0.17-1
json-glib 1.8.0-1
kbd 2.6.3-1
keyutils 1.6.3-2
kmod 30-3
krb5 1.20.1-1
l-smash 2.14.5-3
lame 3.100-4
lcms2 2.15-1
ldns 1.8.3-2
less 1:643-1
libarchive 3.7.2-1
libass 0.17.1-1
libassuan 2.5.6-1
libasyncns 1:0.8+r3+g68cd5af-2
libavc1394 0.5.4-6
libavif 1.0.1-1
libbluray 1.3.4-1
libbpf 1.2.2-1
libbs2b 3.1.0-8
libbsd 0.11.7-1
libcap 2.69-1
libcap-ng 0.8.3-2
libcloudproviders 0.3.4-1
libcolord 1.4.6-1
libcups 1:2.4.7-1
libdaemon 0.14-5
libdatrie 0.2.13-4
libde265 1.0.12-1
libdeflate 1.19-1
libdrm 2.4.116-1
libedit 20230828_3.1-1
libelf 0.189-3
libepoxy 1.5.10-2
libevdev 1.13.1-1
libevent 2.1.12-4
libexif 0.6.24-2
libffi 3.4.4-1
libfontenc 1.1.7-1
libgcrypt 1.10.2-1
libglvnd 1.6.0-1
libgpg-error 1.47-1
libgudev 238-1
libheif 1.16.2-1
libice 1.1.1-2
libidn 1.41-1
libidn2 2.3.4-3.1
libiec61883 1.2.0-7
libinput 1.24.0-1
libisl 0.26-1
libjpeg-turbo 3.0.0-1
libjxl 0.8.2-2
libksba 1.6.4-1
libldap 2.6.6-1.1
libmd 1.1.0-1
libmnl 1.0.5-1
libmodplug 0.8.9.0-5
libmpc 1.3.1-1
libmupdf 1.23.3-4
libnetfilter_conntrack 1.0.9-1
libnfnetlink 1.0.2-1
libnftnl 1.2.6-1
libnghttp2 1.56.0-1
libnl 3.8.0-1
libnsl 2.0.0-3
libogg 1.3.5-1
libomxil-bellagio 0.9.3-4
libopenmpt 0.7.3-1
libp11-kit 0.25.0-2
libpaper 2.1.1-1
libpcap 1.10.4-1
libpciaccess 0.17-1
libpipeline 1.5.7-1
libpng 1.6.40-2
libproxy 0.5.3-2
libpsl 0.21.2-1
libpulse 16.1-6
libraw1394 2.1.2-3
librsvg 2:2.57.0-1
libsamplerate 0.2.2-2
libsasl 2.1.28-4
libseccomp 2.5.4-2
libsecret 0.21.1-1
libsigsegv 2.14-2
libsm 1.2.4-1
libsndfile 1.2.2-1
libsoup3 3.4.3-1
libsoxr 0.1.3-3
libssh 0.10.5-1
libssh2 1.11.0-1
libstemmer 2.2.0-2
libsynctex 2023.66984-16
libsysprof-capture 3.48.0-4
libtasn1 4.19.0-1
libthai 0.1.29-3
libtheora 1.1.1-6
libtiff 4.6.0-1
libtirpc 1.3.3-2
libunistring 1.1-2
libunwind 1.6.2-2
libusb 1.0.26-2
libutempter 1.2.1-3
libutf8proc 2.8.0-1
libva 2.20.0-1
libvdpau 1.5-2
libverto 0.3.2-4
libvorbis 1.3.7-3
libvpx 1.13.0-2
libwacom 2.8.0-1
libwebp 1.3.2-1
libx11 1.8.6-1
libxau 1.0.11-2
libxaw 1.0.15-1
libxcb 1.16-1
libxcomposite 0.4.6-1
libxcrypt 4.4.36-1
libxcursor 1.2.1-3
libxcvt 0.1.2-1
libxdamage 1.1.6-1
libxdmcp 1.1.4-2
libxext 1.3.5-1
libxfixes 6.0.1-1
libxfont2 2.0.6-2
libxft 2.3.8-1
libxi 1.8.1-1
libxinerama 1.1.5-1
libxkbcommon 1.5.0-1
libxkbfile 1.1.2-1
libxml2 2.11.5-1
libxmu 1.1.4-1
libxpm 3.5.16-1
libxrandr 1.5.3-1
libxrender 0.9.11-1
libxshmfence 1.3.2-1
libxss 1.2.4-1
libxt 1.3.0-1
libxtst 1.2.4-1
libxv 1.0.12-1
libxxf86vm 1.1.5-1
libyuv r2322+3aebf69d-1.1
licenses 20230917-1
links 2.29-1
linux-api-headers 6.4-1
llvm-libs 16.0.6-1
lm_sensors 1:3.6.0.r41.g31d1f125-2
luit 20230201-1
lz4 1:1.9.4-1
lzo 2.10-5
m4 1.4.19-3
mailcap 2.1.54-1
make 4.4.1-2
man-db 2.12.0-1
manjaro-arm-keyring 20220210-1
manjaro-keyring 20230719-2
mesa 23.1.8-1
mpfr 4.2.1-1
mpg123 1.32.2-1
mtdev 1.1.6-2
mupdf 1.23.3-4
nano 7.2-1
ncftp 3.2.6-5
ncurses 6.4_20230520-1
net-tools 2.10-2
nettle 3.9.1-1
npth 1.6-4
nspr 4.35-1
nss 3.93-1
ocl-icd 2.3.2-1
opencore-amr 0.1.6-1
openexr 3.2.1-1
openjpeg2 2.5.0-3
openssh 9.4p1-4
openssl 3.1.3-1
opus 1.4-1
p11-kit 0.25.0-2
pacman 6.0.2-2
pacman-mirrors 4.23.2+3+g4148c3d-1
pam 1.5.3-3
pambase 20230918-1
pango 1:1.50.14-1
pciutils 3.10.0-1
pcre2 10.42-2
pcsclite 2.0.0-1
perl 5.38.0-1
pinentry 1.2.1-2
pixman 0.42.2-1
polkit 123-1
poppler 23.08.0-1
poppler-data 0.4.12-1
popt 1.19-1
portaudio 1:19.7.0-2
potrace 1.16-2
procps-ng 4.0.4-2
psmisc 23.6-1
python 3.11.5-2
python-certifi 2023.07.22-1
python-chardet 5.2.0-1
python-idna 3.4-3
python-npyscreen 4.10.5-8
python-requests 2.28.2-4
python-urllib3 1.26.15-1
rav1e 0.6.6-1
readline 8.2.001-2
screen 4.9.1-1
sdl2 2.28.3-1
sed 4.9-3
serf 1.3.9-8
shadow 4.14.0-4
shared-mime-info 2.2+13+ga2ffb28-1
speex 1.2.1-1
speexdsp 1.2.1-1
sqlite 3.43.1-1
srt 1.5.3-1
sshfs 3.7.3-1
subversion 1.14.2-10
systemd 254.5-1
systemd-libs 254.5-1
systemd-sysvcompat 254.5-1
t1lib 5.1.2-8
tar 1.35-1
terminus-font 4.49.1-6
texlive-basic 2023.66594-19
texlive-bin 2023.66984-16
texlive-latex 2023.66594-19
texlive-latexextra 2023.66594-19
texlive-latexrecommended 2023.66594-19
texlive-pictures 2023.66594-19
tpm2-tss 4.0.1-1
tracker3 3.6.0-1
tzdata 2023c-2
util-linux 2.39.2-1
util-linux-libs 2.39.2-1
v4l-utils 1.24.1-2
vid.stab 1.1.1-1
vim 9.0.1882-1
vim-runtime 9.0.1882-1
vulkan-icd-loader 1.3.263-1
wayland 1.22.0-1
wget 1.21.4-1
wireless_tools 30.pre9-3
wmctrl 1.07-6
woff2 1.0.2-4
wpa_supplicant 2:2.10-8
x264 3:0.164.r3095.baee400-4
x265 3.5-3
xbitmaps 1.1.3-1
xcb-proto 1.16.0-1
xcb-util 0.4.1-1
xcb-util-image 0.4.1-2
xcb-util-keysyms 0.4.1-4
xcb-util-renderutil 0.3.10-1
xcb-util-wm 0.4.2-1
xclip 0.13-4
xf86-input-libinput 1.4.0-1
xf86-video-vesa 2.6.0-1
xkeyboard-config 2.39-1
xorg-bdftopcf 1.1.1-1
xorg-docs 1.7.2-2
xorg-font-util 1.4.1-1
xorg-fonts-100dpi 1.0.4-2
xorg-fonts-75dpi 1.0.4-1
xorg-fonts-alias-100dpi 1.0.5-1
xorg-fonts-alias-75dpi 1.0.5-1
xorg-fonts-encodings 1.0.7-1
xorg-iceauth 1.0.9-1
xorg-mkfontscale 1.2.2-1
xorg-server 21.1.8-2
xorg-server-common 21.1.8-2
xorg-server-devel 21.1.8-2
xorg-server-xephyr 21.1.8-2
xorg-server-xnest 21.1.8-2
xorg-server-xvfb 21.1.8-2
xorg-sessreg 1.1.3-1
xorg-setxkbmap 1.3.4-1
xorg-smproxy 1.0.7-1
xorg-util-macros 1.20.0-2
xorg-x11perf 1.6.2-1
xorg-xauth 1.1.2-1
xorg-xbacklight 1.2.3-3
xorg-xcmsdb 1.0.6-1
xorg-xcursorgen 1.0.8-1
xorg-xdpyinfo 1.3.4-1
xorg-xdriinfo 1.0.7-1
xorg-xev 1.2.5-1
xorg-xgamma 1.0.7-1
xorg-xhost 1.0.9-1
xorg-xinit 1.4.2-1
xorg-xinput 1.6.4-1
xorg-xkbcomp 1.4.6-1
xorg-xkbevd 1.1.5-1
xorg-xkbutils 1.0.5-1
xorg-xkill 1.0.6-1
xorg-xlsatoms 1.1.4-1
xorg-xlsclients 1.1.5-1
xorg-xmodmap 1.0.11-1
xorg-xpr 1.1.0-1
xorg-xprop 1.2.6-1
xorg-xrandr 1.5.2-1
xorg-xrdb 1.2.2-1
xorg-xrefresh 1.0.7-1
xorg-xset 1.2.5-1
xorg-xsetroot 1.1.3-1
xorg-xvinfo 1.1.5-1
xorg-xwayland 23.2.1-1
xorg-xwd 1.0.9-1
xorg-xwininfo 1.1.6-1
xorg-xwud 1.0.6-1
xorgproto 2023.2-1
xterm 384-1
xvidcore 1.3.7-2
xz 5.4.4-1
zimg 3.0.5-1
zlib 1:1.3-1
zstd 1.5.5-1
zziplib 0.13.72-2
alsa-utils 1.2.10-1
arch-install-scripts 28-1
base 3-1
ctwm 4.1.0-1
curl 8.3.0-1
curlftpfs 0.9.2-8
debootstrap 1.0.132-1
dhcpcd 10.0.2-1
feh 3.10-1
firefox 118.0.1-1
fltk 1.3.8-2
gcc 12.1.0-2.1
less 1:643-1
links 2.29-1
m4 1.4.19-3
make 4.4.1-2
mpg123 1.32.2-1
mupdf 1.23.3-4
nano 7.2-1
ncftp 3.2.6-5
ncurses 6.4_20230520-1
net-tools 2.10-2
openssh 9.4p1-4
screen 4.9.1-1
sshfs 3.7.3-1
subversion 1.14.2-10
terminus-font 4.49.1-6
texlive-bin 2023.66984-16
texlive-latexextra 2023.66594-19
vim 9.0.1882-1
wget 1.21.4-1
wireless_tools 30.pre9-3
wmctrl 1.07-6
wpa_supplicant 2:2.10-8
xclip 0.13-4
xf86-video-vesa 2.6.0-1
xorg-bdftopcf 1.1.1-1
xorg-docs 1.7.2-2
xorg-font-util 1.4.1-1
xorg-fonts-100dpi 1.0.4-2
xorg-fonts-75dpi 1.0.4-1
xorg-fonts-encodings 1.0.7-1
xorg-iceauth 1.0.9-1
xorg-mkfontscale 1.2.2-1
xorg-server 21.1.8-2
xorg-server-common 21.1.8-2
xorg-server-devel 21.1.8-2
xorg-server-xephyr 21.1.8-2
xorg-server-xnest 21.1.8-2
xorg-server-xvfb 21.1.8-2
xorg-sessreg 1.1.3-1
xorg-setxkbmap 1.3.4-1
xorg-smproxy 1.0.7-1
xorg-x11perf 1.6.2-1
xorg-xauth 1.1.2-1
xorg-xbacklight 1.2.3-3
xorg-xcmsdb 1.0.6-1
xorg-xcursorgen 1.0.8-1
xorg-xdpyinfo 1.3.4-1
xorg-xdriinfo 1.0.7-1
xorg-xev 1.2.5-1
xorg-xgamma 1.0.7-1
xorg-xhost 1.0.9-1
xorg-xinit 1.4.2-1
xorg-xinput 1.6.4-1
xorg-xkbcomp 1.4.6-1
xorg-xkbevd 1.1.5-1
xorg-xkbutils 1.0.5-1
xorg-xkill 1.0.6-1
xorg-xlsatoms 1.1.4-1
xorg-xlsclients 1.1.5-1
xorg-xmodmap 1.0.11-1
xorg-xpr 1.1.0-1
xorg-xprop 1.2.6-1
xorg-xrandr 1.5.2-1
xorg-xrdb 1.2.2-1
xorg-xrefresh 1.0.7-1
xorg-xset 1.2.5-1
xorg-xsetroot 1.1.3-1
xorg-xvinfo 1.1.5-1
xorg-xwayland 23.2.1-1
xorg-xwd 1.0.9-1
xorg-xwininfo 1.1.6-1
xorg-xwud 1.0.6-1
xterm 384-1




acl-2.3.1-3-aarch64.pkg.tar.xz
acl-2.3.1-3-aarch64.pkg.tar.xz.sig
adobe-source-code-pro-fonts-2.042u+1.062i+1.026vf-1-any.pkg.tar.xz
adobe-source-code-pro-fonts-2.042u+1.062i+1.026vf-1-any.pkg.tar.xz.sig
adwaita-cursors-44.0-1-any.pkg.tar.xz
adwaita-cursors-44.0-1-any.pkg.tar.xz.sig
adwaita-icon-theme-44.0-1-any.pkg.tar.xz
adwaita-icon-theme-44.0-1-any.pkg.tar.xz.sig
alsa-lib-1.2.10-2-aarch64.pkg.tar.xz
alsa-lib-1.2.10-2-aarch64.pkg.tar.xz.sig
alsa-topology-conf-1.2.5.1-3-any.pkg.tar.xz
alsa-topology-conf-1.2.5.1-3-any.pkg.tar.xz.sig
alsa-ucm-conf-1.2.10-2-any.pkg.tar.xz
alsa-ucm-conf-1.2.10-2-any.pkg.tar.xz.sig
alsa-utils-1.2.10-1-aarch64.pkg.tar.xz
alsa-utils-1.2.10-1-aarch64.pkg.tar.xz.sig
aom-3.7.0-1-aarch64.pkg.tar.xz
aom-3.7.0-1-aarch64.pkg.tar.xz.sig
apr-1.7.3-1-aarch64.pkg.tar.xz
apr-1.7.3-1-aarch64.pkg.tar.xz.sig
apr-util-1.6.3-1-aarch64.pkg.tar.xz
apr-util-1.6.3-1-aarch64.pkg.tar.xz.sig
arch-install-scripts-28-1-any.pkg.tar.xz
arch-install-scripts-28-1-any.pkg.tar.xz.sig
archlinux-keyring-20230918-1-any.pkg.tar.xz
archlinux-keyring-20230918-1-any.pkg.tar.xz.sig
archlinuxarm-keyring-20140119-2-any.pkg.tar.xz
archlinuxarm-keyring-20140119-2-any.pkg.tar.xz.sig
argon2-20190702-5-aarch64.pkg.tar.xz
argon2-20190702-5-aarch64.pkg.tar.xz.sig
at-spi2-core-2.50.0-1-aarch64.pkg.tar.xz
at-spi2-core-2.50.0-1-aarch64.pkg.tar.xz.sig
atkmm-2.28.3-1-aarch64.pkg.tar.xz
attr-2.5.1-3-aarch64.pkg.tar.xz
attr-2.5.1-3-aarch64.pkg.tar.xz.sig
audit-3.1.2-1-aarch64.pkg.tar.xz
audit-3.1.2-1-aarch64.pkg.tar.xz.sig
avahi-1:0.8+r127+g55d783d-1-aarch64.pkg.tar.xz
avahi-1:0.8+r127+g55d783d-1-aarch64.pkg.tar.xz.sig
base-3-1-any.pkg.tar.xz
base-3-1-any.pkg.tar.xz.sig
bash-5.1.016-4-aarch64.pkg.tar.xz
bash-5.1.016-4-aarch64.pkg.tar.xz.sig
binutils-2.38-5.1-aarch64.pkg.tar.xz
binutils-2.38-5.1-aarch64.pkg.tar.xz.sig
brotli-1.1.0-1-aarch64.pkg.tar.xz
brotli-1.1.0-1-aarch64.pkg.tar.xz.sig
bzip2-1.0.8-5-aarch64.pkg.tar.xz
bzip2-1.0.8-5-aarch64.pkg.tar.xz.sig
ca-certificates-20220905-1-any.pkg.tar.xz
ca-certificates-20220905-1-any.pkg.tar.xz.sig
ca-certificates-mozilla-3.93-1-aarch64.pkg.tar.xz
ca-certificates-mozilla-3.93-1-aarch64.pkg.tar.xz.sig
ca-certificates-utils-20220905-1-any.pkg.tar.xz
ca-certificates-utils-20220905-1-any.pkg.tar.xz.sig
cairo-1.18.0-1-aarch64.pkg.tar.xz
cairo-1.18.0-1-aarch64.pkg.tar.xz.sig
cairomm-1.14.4-1-aarch64.pkg.tar.xz
cantarell-fonts-1:0.303.1-1-any.pkg.tar.xz
cantarell-fonts-1:0.303.1-1-any.pkg.tar.xz.sig
clang-16.0.6-1-aarch64.pkg.tar.xz
compiler-rt-16.0.6-2-aarch64.pkg.tar.xz
coreutils-9.3-1-aarch64.pkg.tar.xz
coreutils-9.3-1-aarch64.pkg.tar.xz.sig
cryptsetup-2.6.1-3-aarch64.pkg.tar.xz
cryptsetup-2.6.1-3-aarch64.pkg.tar.xz.sig
ctwm-4.1.0-1-aarch64.pkg.tar.xz
ctwm-4.1.0-1-aarch64.pkg.tar.xz.sig
curl-8.3.0-1-aarch64.pkg.tar.xz
curl-8.3.0-1-aarch64.pkg.tar.xz.sig
curlftpfs-0.9.2-8-aarch64.pkg.tar.xz
curlftpfs-0.9.2-8-aarch64.pkg.tar.xz.sig
dav1d-1.2.1-1-aarch64.pkg.tar.xz
dav1d-1.2.1-1-aarch64.pkg.tar.xz.sig
db-6.2.32-1-aarch64.pkg.tar.xz
db-6.2.32-1-aarch64.pkg.tar.xz.sig
db5.3-5.3.28-4-aarch64.pkg.tar.xz
db5.3-5.3.28-4-aarch64.pkg.tar.xz.sig
dbus-1.14.10-1-aarch64.pkg.tar.xz
dbus-1.14.10-1-aarch64.pkg.tar.xz.sig
dbus-glib-0.112-3-aarch64.pkg.tar.xz
dbus-glib-0.112-3-aarch64.pkg.tar.xz.sig
dconf-0.40.0-2-aarch64.pkg.tar.xz
dconf-0.40.0-2-aarch64.pkg.tar.xz.sig
debootstrap-1.0.132-1-any.pkg.tar.xz
debootstrap-1.0.132-1-any.pkg.tar.xz.sig
default-cursors-2-1-any.pkg.tar.xz
default-cursors-2-1-any.pkg.tar.xz.sig
desktop-file-utils-0.26-2-aarch64.pkg.tar.xz
desktop-file-utils-0.26-2-aarch64.pkg.tar.xz.sig
device-mapper-2.03.22-2-aarch64.pkg.tar.xz
device-mapper-2.03.22-2-aarch64.pkg.tar.xz.sig
dhcpcd-10.0.2-1-aarch64.pkg.tar.xz
dhcpcd-10.0.2-1-aarch64.pkg.tar.xz.sig
dillo-3.0.5-12-aarch64.pkg.tar.xz
dnssec-anchors-20190629-3-any.pkg.tar.xz
dnssec-anchors-20190629-3-any.pkg.tar.xz.sig
duktape-2.7.0-6-aarch64.pkg.tar.xz
duktape-2.7.0-6-aarch64.pkg.tar.xz.sig
dvisvgm-3.1.1-1-aarch64.pkg.tar.xz
dvisvgm-3.1.1-1-aarch64.pkg.tar.xz.sig
e2fsprogs-1.47.0-1-aarch64.pkg.tar.xz
e2fsprogs-1.47.0-1-aarch64.pkg.tar.xz.sig
expat-2.5.0-1-aarch64.pkg.tar.xz
expat-2.5.0-1-aarch64.pkg.tar.xz.sig
feh-3.10-1-aarch64.pkg.tar.xz
feh-3.10-1-aarch64.pkg.tar.xz.sig
ffmpeg-2:6.0-11-aarch64.pkg.tar.xz
ffmpeg-2:6.0-11-aarch64.pkg.tar.xz.sig
file-5.45-1-aarch64.pkg.tar.xz
file-5.45-1-aarch64.pkg.tar.xz.sig
filesystem-2023.01-1-aarch64.pkg.tar.zst
filesystem-2023.01-1-aarch64.pkg.tar.zst.sig
findutils-4.9.0-3-aarch64.pkg.tar.xz
findutils-4.9.0-3-aarch64.pkg.tar.xz.sig
firefox-118.0.1-1-aarch64.pkg.tar.xz
firefox-118.0.1-1-aarch64.pkg.tar.xz.sig
flac-1.4.3-1-aarch64.pkg.tar.xz
flac-1.4.3-1-aarch64.pkg.tar.xz.sig
fltk-1.3.8-2-aarch64.pkg.tar.xz
fltk-1.3.8-2-aarch64.pkg.tar.xz.sig
fontconfig-2:2.14.2-1-aarch64.pkg.tar.xz
fontconfig-2:2.14.2-1-aarch64.pkg.tar.xz.sig
freetype2-2.13.2-1-aarch64.pkg.tar.xz
freetype2-2.13.2-1-aarch64.pkg.tar.xz.sig
fribidi-1.0.13-2-aarch64.pkg.tar.xz
fribidi-1.0.13-2-aarch64.pkg.tar.xz.sig
fuse-common-3.16.1-1-aarch64.pkg.tar.xz
fuse-common-3.16.1-1-aarch64.pkg.tar.xz.sig
fuse2-2.9.9-4-aarch64.pkg.tar.xz
fuse2-2.9.9-4-aarch64.pkg.tar.xz.sig
fuse3-3.16.1-1-aarch64.pkg.tar.xz
fuse3-3.16.1-1-aarch64.pkg.tar.xz.sig
galculator-2.1.4-8-aarch64.pkg.tar.xz
gawk-5.2.2-1-aarch64.pkg.tar.xz
gawk-5.2.2-1-aarch64.pkg.tar.xz.sig
gc-8.2.4-1-aarch64.pkg.tar.xz
gc-8.2.4-1-aarch64.pkg.tar.xz.sig
gcc-12.1.0-2.1-aarch64.pkg.tar.xz
gcc-12.1.0-2.1-aarch64.pkg.tar.xz.sig
gcc-libs-12.1.0-2.1-aarch64.pkg.tar.xz
gcc-libs-12.1.0-2.1-aarch64.pkg.tar.xz.sig
gd-2.3.3-7-aarch64.pkg.tar.xz
gd-2.3.3-7-aarch64.pkg.tar.xz.sig
gdbm-1.23-2-aarch64.pkg.tar.xz
gdbm-1.23-2-aarch64.pkg.tar.xz.sig
gdk-pixbuf2-2.42.10-2-aarch64.pkg.tar.xz
gdk-pixbuf2-2.42.10-2-aarch64.pkg.tar.xz.sig
gettext-0.22.2-1-aarch64.pkg.tar.xz
gettext-0.22.2-1-aarch64.pkg.tar.xz.sig
ghostscript-10.02.0-1-aarch64.pkg.tar.xz
ghostscript-10.02.0-1-aarch64.pkg.tar.xz.sig
giflib-5.2.1-2-aarch64.pkg.tar.xz
giflib-5.2.1-2-aarch64.pkg.tar.xz.sig
glib-networking-1:2.78.0-1-aarch64.pkg.tar.xz
glib-networking-1:2.78.0-1-aarch64.pkg.tar.xz.sig
glib2-2.78.0-2-aarch64.pkg.tar.xz
glib2-2.78.0-2-aarch64.pkg.tar.xz.sig
glibc-2.35-5.1-aarch64.pkg.tar.xz
glibc-2.35-5.1-aarch64.pkg.tar.xz.sig
glibmm-2.66.6-1-aarch64.pkg.tar.xz
gmp-6.3.0-1-aarch64.pkg.tar.xz
gmp-6.3.0-1-aarch64.pkg.tar.xz.sig
gnu-free-fonts-20120503-8-any.pkg.tar.xz
gnu-free-fonts-20120503-8-any.pkg.tar.xz.sig
gnupg-2.2.41-2-aarch64.pkg.tar.xz
gnupg-2.2.41-2-aarch64.pkg.tar.xz.sig
gnutls-3.8.1-1-aarch64.pkg.tar.xz
gnutls-3.8.1-1-aarch64.pkg.tar.xz.sig
gparted-1.5.0-1-aarch64.pkg.tar.xz
gperftools-2.13-1-aarch64.pkg.tar.xz
gperftools-2.13-1-aarch64.pkg.tar.xz.sig
gpgme-1.22.0-1-aarch64.pkg.tar.xz
gpgme-1.22.0-1-aarch64.pkg.tar.xz.sig
gpm-1.20.7.r38.ge82d1a6-5-aarch64.pkg.tar.xz
gpm-1.20.7.r38.ge82d1a6-5-aarch64.pkg.tar.xz.sig
graphite-1:1.3.14-3-aarch64.pkg.tar.xz
graphite-1:1.3.14-3-aarch64.pkg.tar.xz.sig
grep-3.11-1-aarch64.pkg.tar.xz
grep-3.11-1-aarch64.pkg.tar.xz.sig
groff-1.23.0-5-aarch64.pkg.tar.xz
groff-1.23.0-5-aarch64.pkg.tar.xz.sig
gsettings-desktop-schemas-44.0-1-any.pkg.tar.xz
gsettings-desktop-schemas-44.0-1-any.pkg.tar.xz.sig
gsm-1.0.22-1-aarch64.pkg.tar.xz
gsm-1.0.22-1-aarch64.pkg.tar.xz.sig
gtk-chtheme-0.3.1-11-aarch64.pkg.tar.xz
gtk-update-icon-cache-1:4.12.3-1-aarch64.pkg.tar.xz
gtk-update-icon-cache-1:4.12.3-1-aarch64.pkg.tar.xz.sig
gtk2-2.24.33-3-aarch64.pkg.tar.xz
gtk3-1:3.24.38-1-aarch64.pkg.tar.xz
gtk3-1:3.24.38-1-aarch64.pkg.tar.xz.sig
gtkmm3-3.24.8-1-aarch64.pkg.tar.xz
guile-3.0.9-1-aarch64.pkg.tar.xz
guile-3.0.9-1-aarch64.pkg.tar.xz.sig
gumbo-parser-0.12.1-1-aarch64.pkg.tar.xz
gumbo-parser-0.12.1-1-aarch64.pkg.tar.xz.sig
gzip-1.13-2-aarch64.pkg.tar.xz
gzip-1.13-2-aarch64.pkg.tar.xz.sig
harfbuzz-8.2.1-1-aarch64.pkg.tar.xz
harfbuzz-8.2.1-1-aarch64.pkg.tar.xz.sig
harfbuzz-icu-8.2.1-1-aarch64.pkg.tar.xz
harfbuzz-icu-8.2.1-1-aarch64.pkg.tar.xz.sig
hicolor-icon-theme-0.17-3-any.pkg.tar.xz
hicolor-icon-theme-0.17-3-any.pkg.tar.xz.sig
hidapi-0.14.0-2-aarch64.pkg.tar.xz
hidapi-0.14.0-2-aarch64.pkg.tar.xz.sig
highway-1.0.7-1-aarch64.pkg.tar.xz
highway-1.0.7-1-aarch64.pkg.tar.xz.sig
hwdata-0.374-1-any.pkg.tar.xz
hwdata-0.374-1-any.pkg.tar.xz.sig
iana-etc-20230907-1-any.pkg.tar.xz
iana-etc-20230907-1-any.pkg.tar.xz.sig
icu-73.2-2-aarch64.pkg.tar.xz
icu-73.2-2-aarch64.pkg.tar.xz.sig
ijs-0.35-5-aarch64.pkg.tar.xz
ijs-0.35-5-aarch64.pkg.tar.xz.sig
imake-1.0.9-2-aarch64.pkg.tar.xz
imath-3.1.9-2-aarch64.pkg.tar.xz
imath-3.1.9-2-aarch64.pkg.tar.xz.sig
imlib2-1.12.1-1-aarch64.pkg.tar.xz
imlib2-1.12.1-1-aarch64.pkg.tar.xz.sig
iproute2-6.5.0-1-aarch64.pkg.tar.xz
iproute2-6.5.0-1-aarch64.pkg.tar.xz.sig
iptables-1:1.8.9-1-aarch64.pkg.tar.xz
iptables-1:1.8.9-1-aarch64.pkg.tar.xz.sig
iputils-20221126-2-aarch64.pkg.tar.xz
iputils-20221126-2-aarch64.pkg.tar.xz.sig
iso-codes-4.15.0-1-any.pkg.tar.xz
iso-codes-4.15.0-1-any.pkg.tar.xz.sig
jack2-1.9.22-1-aarch64.pkg.tar.xz
jack2-1.9.22-1-aarch64.pkg.tar.xz.sig
jbig2dec-0.19-1-aarch64.pkg.tar.xz
jbig2dec-0.19-1-aarch64.pkg.tar.xz.sig
jbigkit-2.1-7-aarch64.pkg.tar.xz
jbigkit-2.1-7-aarch64.pkg.tar.xz.sig
json-c-0.17-1-aarch64.pkg.tar.xz
json-c-0.17-1-aarch64.pkg.tar.xz.sig
json-glib-1.8.0-1-aarch64.pkg.tar.xz
json-glib-1.8.0-1-aarch64.pkg.tar.xz.sig
kbd-2.6.3-1-aarch64.pkg.tar.xz
kbd-2.6.3-1-aarch64.pkg.tar.xz.sig
keyutils-1.6.3-2-aarch64.pkg.tar.xz
keyutils-1.6.3-2-aarch64.pkg.tar.xz.sig
kmod-30-3-aarch64.pkg.tar.xz
kmod-30-3-aarch64.pkg.tar.xz.sig
krb5-1.20.1-1-aarch64.pkg.tar.xz
krb5-1.20.1-1-aarch64.pkg.tar.xz.sig
l-smash-2.14.5-3-aarch64.pkg.tar.xz
l-smash-2.14.5-3-aarch64.pkg.tar.xz.sig
lame-3.100-4-aarch64.pkg.tar.xz
lame-3.100-4-aarch64.pkg.tar.xz.sig
lcms2-2.15-1-aarch64.pkg.tar.xz
lcms2-2.15-1-aarch64.pkg.tar.xz.sig
ldns-1.8.3-2-aarch64.pkg.tar.xz
ldns-1.8.3-2-aarch64.pkg.tar.xz.sig
less-1:643-1-aarch64.pkg.tar.xz
less-1:643-1-aarch64.pkg.tar.xz.sig
libarchive-3.7.2-1-aarch64.pkg.tar.xz
libarchive-3.7.2-1-aarch64.pkg.tar.xz.sig
libass-0.17.1-1-aarch64.pkg.tar.xz
libass-0.17.1-1-aarch64.pkg.tar.xz.sig
libassuan-2.5.6-1-aarch64.pkg.tar.xz
libassuan-2.5.6-1-aarch64.pkg.tar.xz.sig
libasyncns-1:0.8+r3+g68cd5af-2-aarch64.pkg.tar.xz
libasyncns-1:0.8+r3+g68cd5af-2-aarch64.pkg.tar.xz.sig
libavc1394-0.5.4-6-aarch64.pkg.tar.xz
libavc1394-0.5.4-6-aarch64.pkg.tar.xz.sig
libavif-1.0.1-1-aarch64.pkg.tar.xz
libavif-1.0.1-1-aarch64.pkg.tar.xz.sig
libbluray-1.3.4-1-aarch64.pkg.tar.xz
libbluray-1.3.4-1-aarch64.pkg.tar.xz.sig
libbpf-1.2.2-1-aarch64.pkg.tar.xz
libbpf-1.2.2-1-aarch64.pkg.tar.xz.sig
libbs2b-3.1.0-8-aarch64.pkg.tar.xz
libbs2b-3.1.0-8-aarch64.pkg.tar.xz.sig
libbsd-0.11.7-1-aarch64.pkg.tar.xz
libbsd-0.11.7-1-aarch64.pkg.tar.xz.sig
libcap-2.69-1-aarch64.pkg.tar.xz
libcap-2.69-1-aarch64.pkg.tar.xz.sig
libcap-ng-0.8.3-2-aarch64.pkg.tar.xz
libcap-ng-0.8.3-2-aarch64.pkg.tar.xz.sig
libcloudproviders-0.3.4-1-aarch64.pkg.tar.xz
libcloudproviders-0.3.4-1-aarch64.pkg.tar.xz.sig
libcolord-1.4.6-1-aarch64.pkg.tar.xz
libcolord-1.4.6-1-aarch64.pkg.tar.xz.sig
libcups-1:2.4.7-1-aarch64.pkg.tar.xz
libcups-1:2.4.7-1-aarch64.pkg.tar.xz.sig
libdaemon-0.14-5-aarch64.pkg.tar.xz
libdaemon-0.14-5-aarch64.pkg.tar.xz.sig
libdatrie-0.2.13-4-aarch64.pkg.tar.xz
libdatrie-0.2.13-4-aarch64.pkg.tar.xz.sig
libde265-1.0.12-1-aarch64.pkg.tar.xz
libde265-1.0.12-1-aarch64.pkg.tar.xz.sig
libdeflate-1.19-1-aarch64.pkg.tar.xz
libdeflate-1.19-1-aarch64.pkg.tar.xz.sig
libdrm-2.4.116-1-aarch64.pkg.tar.xz
libdrm-2.4.116-1-aarch64.pkg.tar.xz.sig
libedit-20230828_3.1-1-aarch64.pkg.tar.xz
libedit-20230828_3.1-1-aarch64.pkg.tar.xz.sig
libelf-0.189-3-aarch64.pkg.tar.xz
libelf-0.189-3-aarch64.pkg.tar.xz.sig
libepoxy-1.5.10-2-aarch64.pkg.tar.xz
libepoxy-1.5.10-2-aarch64.pkg.tar.xz.sig
libevdev-1.13.1-1-aarch64.pkg.tar.xz
libevdev-1.13.1-1-aarch64.pkg.tar.xz.sig
libevent-2.1.12-4-aarch64.pkg.tar.xz
libevent-2.1.12-4-aarch64.pkg.tar.xz.sig
libexif-0.6.24-2-aarch64.pkg.tar.xz
libexif-0.6.24-2-aarch64.pkg.tar.xz.sig
libffi-3.4.4-1-aarch64.pkg.tar.xz
libffi-3.4.4-1-aarch64.pkg.tar.xz.sig
libfontenc-1.1.7-1-aarch64.pkg.tar.xz
libfontenc-1.1.7-1-aarch64.pkg.tar.xz.sig
libgcrypt-1.10.2-1-aarch64.pkg.tar.xz
libgcrypt-1.10.2-1-aarch64.pkg.tar.xz.sig
libglvnd-1.6.0-1-aarch64.pkg.tar.xz
libglvnd-1.6.0-1-aarch64.pkg.tar.xz.sig
libgpg-error-1.47-1-aarch64.pkg.tar.xz
libgpg-error-1.47-1-aarch64.pkg.tar.xz.sig
libgudev-238-1-aarch64.pkg.tar.xz
libgudev-238-1-aarch64.pkg.tar.xz.sig
libheif-1.16.2-1-aarch64.pkg.tar.xz
libheif-1.16.2-1-aarch64.pkg.tar.xz.sig
libice-1.1.1-2-aarch64.pkg.tar.xz
libice-1.1.1-2-aarch64.pkg.tar.xz.sig
libidn-1.41-1-aarch64.pkg.tar.xz
libidn-1.41-1-aarch64.pkg.tar.xz.sig
libidn2-2.3.4-3.1-aarch64.pkg.tar.xz
libidn2-2.3.4-3.1-aarch64.pkg.tar.xz.sig
libiec61883-1.2.0-7-aarch64.pkg.tar.xz
libiec61883-1.2.0-7-aarch64.pkg.tar.xz.sig
libinput-1.24.0-1-aarch64.pkg.tar.xz
libinput-1.24.0-1-aarch64.pkg.tar.xz.sig
libisl-0.26-1-aarch64.pkg.tar.xz
libisl-0.26-1-aarch64.pkg.tar.xz.sig
libjpeg-turbo-3.0.0-1-aarch64.pkg.tar.xz
libjpeg-turbo-3.0.0-1-aarch64.pkg.tar.xz.sig
libjxl-0.8.2-2-aarch64.pkg.tar.xz
libjxl-0.8.2-2-aarch64.pkg.tar.xz.sig
libksba-1.6.4-1-aarch64.pkg.tar.xz
libksba-1.6.4-1-aarch64.pkg.tar.xz.sig
libldap-2.6.6-1.1-aarch64.pkg.tar.xz
libldap-2.6.6-1.1-aarch64.pkg.tar.xz.sig
libmd-1.1.0-1-aarch64.pkg.tar.xz
libmd-1.1.0-1-aarch64.pkg.tar.xz.sig
libmnl-1.0.5-1-aarch64.pkg.tar.xz
libmnl-1.0.5-1-aarch64.pkg.tar.xz.sig
libmodplug-0.8.9.0-5-aarch64.pkg.tar.xz
libmodplug-0.8.9.0-5-aarch64.pkg.tar.xz.sig
libmpc-1.3.1-1-aarch64.pkg.tar.xz
libmpc-1.3.1-1-aarch64.pkg.tar.xz.sig
libmupdf-1.23.3-4-aarch64.pkg.tar.xz
libmupdf-1.23.3-4-aarch64.pkg.tar.xz.sig
libnetfilter_conntrack-1.0.9-1-aarch64.pkg.tar.xz
libnetfilter_conntrack-1.0.9-1-aarch64.pkg.tar.xz.sig
libnfnetlink-1.0.2-1-aarch64.pkg.tar.xz
libnfnetlink-1.0.2-1-aarch64.pkg.tar.xz.sig
libnftnl-1.2.6-1-aarch64.pkg.tar.xz
libnftnl-1.2.6-1-aarch64.pkg.tar.xz.sig
libnghttp2-1.56.0-1-aarch64.pkg.tar.xz
libnghttp2-1.56.0-1-aarch64.pkg.tar.xz.sig
libnl-3.8.0-1-aarch64.pkg.tar.xz
libnl-3.8.0-1-aarch64.pkg.tar.xz.sig
libnsl-2.0.0-3-aarch64.pkg.tar.xz
libnsl-2.0.0-3-aarch64.pkg.tar.xz.sig
libogg-1.3.5-1-aarch64.pkg.tar.xz
libogg-1.3.5-1-aarch64.pkg.tar.xz.sig
libomxil-bellagio-0.9.3-4-aarch64.pkg.tar.xz
libomxil-bellagio-0.9.3-4-aarch64.pkg.tar.xz.sig
libopenmpt-0.7.3-1-aarch64.pkg.tar.xz
libopenmpt-0.7.3-1-aarch64.pkg.tar.xz.sig
libp11-kit-0.25.0-2-aarch64.pkg.tar.xz
libp11-kit-0.25.0-2-aarch64.pkg.tar.xz.sig
libpaper-2.1.1-1-aarch64.pkg.tar.xz
libpaper-2.1.1-1-aarch64.pkg.tar.xz.sig
libpcap-1.10.4-1-aarch64.pkg.tar.xz
libpcap-1.10.4-1-aarch64.pkg.tar.xz.sig
libpciaccess-0.17-1-aarch64.pkg.tar.xz
libpciaccess-0.17-1-aarch64.pkg.tar.xz.sig
libpipeline-1.5.7-1-aarch64.pkg.tar.xz
libpipeline-1.5.7-1-aarch64.pkg.tar.xz.sig
libpng-1.6.40-2-aarch64.pkg.tar.xz
libpng-1.6.40-2-aarch64.pkg.tar.xz.sig
libproxy-0.5.3-2-aarch64.pkg.tar.xz
libproxy-0.5.3-2-aarch64.pkg.tar.xz.sig
libpsl-0.21.2-1-aarch64.pkg.tar.xz
libpsl-0.21.2-1-aarch64.pkg.tar.xz.sig
libpulse-16.1-6-aarch64.pkg.tar.xz
libpulse-16.1-6-aarch64.pkg.tar.xz.sig
libraw1394-2.1.2-3-aarch64.pkg.tar.xz
libraw1394-2.1.2-3-aarch64.pkg.tar.xz.sig
librsvg-2:2.57.0-1-aarch64.pkg.tar.xz
librsvg-2:2.57.0-1-aarch64.pkg.tar.xz.sig
libsamplerate-0.2.2-2-aarch64.pkg.tar.xz
libsamplerate-0.2.2-2-aarch64.pkg.tar.xz.sig
libsasl-2.1.28-4-aarch64.pkg.tar.xz
libsasl-2.1.28-4-aarch64.pkg.tar.xz.sig
libseccomp-2.5.4-2-aarch64.pkg.tar.xz
libseccomp-2.5.4-2-aarch64.pkg.tar.xz.sig
libsecret-0.21.1-1-aarch64.pkg.tar.xz
libsecret-0.21.1-1-aarch64.pkg.tar.xz.sig
libsigc++-2.12.0-1-aarch64.pkg.tar.xz
libsigsegv-2.14-2-aarch64.pkg.tar.xz
libsigsegv-2.14-2-aarch64.pkg.tar.xz.sig
libsm-1.2.4-1-aarch64.pkg.tar.xz
libsm-1.2.4-1-aarch64.pkg.tar.xz.sig
libsndfile-1.2.2-1-aarch64.pkg.tar.xz
libsndfile-1.2.2-1-aarch64.pkg.tar.xz.sig
libsoup3-3.4.3-1-aarch64.pkg.tar.xz
libsoup3-3.4.3-1-aarch64.pkg.tar.xz.sig
libsoxr-0.1.3-3-aarch64.pkg.tar.xz
libsoxr-0.1.3-3-aarch64.pkg.tar.xz.sig
libssh-0.10.5-1-aarch64.pkg.tar.xz
libssh-0.10.5-1-aarch64.pkg.tar.xz.sig
libssh2-1.11.0-1-aarch64.pkg.tar.xz
libssh2-1.11.0-1-aarch64.pkg.tar.xz.sig
libstemmer-2.2.0-2-aarch64.pkg.tar.xz
libstemmer-2.2.0-2-aarch64.pkg.tar.xz.sig
libsynctex-2023.66984-16-aarch64.pkg.tar.xz
libsynctex-2023.66984-16-aarch64.pkg.tar.xz.sig
libsysprof-capture-3.48.0-4-aarch64.pkg.tar.xz
libsysprof-capture-3.48.0-4-aarch64.pkg.tar.xz.sig
libtasn1-4.19.0-1-aarch64.pkg.tar.xz
libtasn1-4.19.0-1-aarch64.pkg.tar.xz.sig
libthai-0.1.29-3-aarch64.pkg.tar.xz
libthai-0.1.29-3-aarch64.pkg.tar.xz.sig
libtheora-1.1.1-6-aarch64.pkg.tar.xz
libtheora-1.1.1-6-aarch64.pkg.tar.xz.sig
libtiff-4.6.0-1-aarch64.pkg.tar.xz
libtiff-4.6.0-1-aarch64.pkg.tar.xz.sig
libtirpc-1.3.3-2-aarch64.pkg.tar.xz
libtirpc-1.3.3-2-aarch64.pkg.tar.xz.sig
libunistring-1.1-2-aarch64.pkg.tar.xz
libunistring-1.1-2-aarch64.pkg.tar.xz.sig
libunwind-1.6.2-2-aarch64.pkg.tar.xz
libunwind-1.6.2-2-aarch64.pkg.tar.xz.sig
libusb-1.0.26-2-aarch64.pkg.tar.xz
libusb-1.0.26-2-aarch64.pkg.tar.xz.sig
libutempter-1.2.1-3-aarch64.pkg.tar.xz
libutempter-1.2.1-3-aarch64.pkg.tar.xz.sig
libutf8proc-2.8.0-1-aarch64.pkg.tar.xz
libutf8proc-2.8.0-1-aarch64.pkg.tar.xz.sig
libva-2.20.0-1-aarch64.pkg.tar.xz
libva-2.20.0-1-aarch64.pkg.tar.xz.sig
libvdpau-1.5-2-aarch64.pkg.tar.xz
libvdpau-1.5-2-aarch64.pkg.tar.xz.sig
libverto-0.3.2-4-aarch64.pkg.tar.xz
libverto-0.3.2-4-aarch64.pkg.tar.xz.sig
libvorbis-1.3.7-3-aarch64.pkg.tar.xz
libvorbis-1.3.7-3-aarch64.pkg.tar.xz.sig
libvpx-1.13.0-2-aarch64.pkg.tar.xz
libvpx-1.13.0-2-aarch64.pkg.tar.xz.sig
libwacom-2.8.0-1-aarch64.pkg.tar.xz
libwacom-2.8.0-1-aarch64.pkg.tar.xz.sig
libwebp-1.3.2-1-aarch64.pkg.tar.xz
libwebp-1.3.2-1-aarch64.pkg.tar.xz.sig
libx11-1.8.6-1-aarch64.pkg.tar.xz
libx11-1.8.6-1-aarch64.pkg.tar.xz.sig
libxau-1.0.11-2-aarch64.pkg.tar.xz
libxau-1.0.11-2-aarch64.pkg.tar.xz.sig
libxaw-1.0.15-1-aarch64.pkg.tar.xz
libxaw-1.0.15-1-aarch64.pkg.tar.xz.sig
libxcb-1.16-1-aarch64.pkg.tar.xz
libxcb-1.16-1-aarch64.pkg.tar.xz.sig
libxcomposite-0.4.6-1-aarch64.pkg.tar.xz
libxcomposite-0.4.6-1-aarch64.pkg.tar.xz.sig
libxcrypt-4.4.36-1-aarch64.pkg.tar.xz
libxcrypt-4.4.36-1-aarch64.pkg.tar.xz.sig
libxcursor-1.2.1-3-aarch64.pkg.tar.xz
libxcursor-1.2.1-3-aarch64.pkg.tar.xz.sig
libxcvt-0.1.2-1-aarch64.pkg.tar.xz
libxcvt-0.1.2-1-aarch64.pkg.tar.xz.sig
libxdamage-1.1.6-1-aarch64.pkg.tar.xz
libxdamage-1.1.6-1-aarch64.pkg.tar.xz.sig
libxdmcp-1.1.4-2-aarch64.pkg.tar.xz
libxdmcp-1.1.4-2-aarch64.pkg.tar.xz.sig
libxext-1.3.5-1-aarch64.pkg.tar.xz
libxext-1.3.5-1-aarch64.pkg.tar.xz.sig
libxfixes-6.0.1-1-aarch64.pkg.tar.xz
libxfixes-6.0.1-1-aarch64.pkg.tar.xz.sig
libxfont2-2.0.6-2-aarch64.pkg.tar.xz
libxfont2-2.0.6-2-aarch64.pkg.tar.xz.sig
libxft-2.3.8-1-aarch64.pkg.tar.xz
libxft-2.3.8-1-aarch64.pkg.tar.xz.sig
libxi-1.8.1-1-aarch64.pkg.tar.xz
libxi-1.8.1-1-aarch64.pkg.tar.xz.sig
libxinerama-1.1.5-1-aarch64.pkg.tar.xz
libxinerama-1.1.5-1-aarch64.pkg.tar.xz.sig
libxkbcommon-1.5.0-1-aarch64.pkg.tar.xz
libxkbcommon-1.5.0-1-aarch64.pkg.tar.xz.sig
libxkbfile-1.1.2-1-aarch64.pkg.tar.xz
libxkbfile-1.1.2-1-aarch64.pkg.tar.xz.sig
libxml2-2.11.5-1-aarch64.pkg.tar.xz
libxml2-2.11.5-1-aarch64.pkg.tar.xz.sig
libxmu-1.1.4-1-aarch64.pkg.tar.xz
libxmu-1.1.4-1-aarch64.pkg.tar.xz.sig
libxpm-3.5.16-1-aarch64.pkg.tar.xz
libxpm-3.5.16-1-aarch64.pkg.tar.xz.sig
libxrandr-1.5.3-1-aarch64.pkg.tar.xz
libxrandr-1.5.3-1-aarch64.pkg.tar.xz.sig
libxrender-0.9.11-1-aarch64.pkg.tar.xz
libxrender-0.9.11-1-aarch64.pkg.tar.xz.sig
libxshmfence-1.3.2-1-aarch64.pkg.tar.xz
libxshmfence-1.3.2-1-aarch64.pkg.tar.xz.sig
libxss-1.2.4-1-aarch64.pkg.tar.xz
libxss-1.2.4-1-aarch64.pkg.tar.xz.sig
libxt-1.3.0-1-aarch64.pkg.tar.xz
libxt-1.3.0-1-aarch64.pkg.tar.xz.sig
libxtst-1.2.4-1-aarch64.pkg.tar.xz
libxtst-1.2.4-1-aarch64.pkg.tar.xz.sig
libxv-1.0.12-1-aarch64.pkg.tar.xz
libxv-1.0.12-1-aarch64.pkg.tar.xz.sig
libxxf86vm-1.1.5-1-aarch64.pkg.tar.xz
libxxf86vm-1.1.5-1-aarch64.pkg.tar.xz.sig
libyuv-r2322+3aebf69d-1.1-aarch64.pkg.tar.xz
libyuv-r2322+3aebf69d-1.1-aarch64.pkg.tar.xz.sig
licenses-20230917-1-any.pkg.tar.xz
licenses-20230917-1-any.pkg.tar.xz.sig
links-2.29-1-aarch64.pkg.tar.xz
links-2.29-1-aarch64.pkg.tar.xz.sig
linux-api-headers-6.4-1-any.pkg.tar.xz
linux-api-headers-6.4-1-any.pkg.tar.xz.sig
llvm-libs-16.0.6-1-aarch64.pkg.tar.xz
llvm-libs-16.0.6-1-aarch64.pkg.tar.xz.sig
lm_sensors-1:3.6.0.r41.g31d1f125-2-aarch64.pkg.tar.xz
lm_sensors-1:3.6.0.r41.g31d1f125-2-aarch64.pkg.tar.xz.sig
luit-20230201-1-aarch64.pkg.tar.xz
luit-20230201-1-aarch64.pkg.tar.xz.sig
lxsession-1:0.5.5-2-aarch64.pkg.tar.xz
lxterminal-0.4.0-1-aarch64.pkg.tar.xz
lz4-1:1.9.4-1-aarch64.pkg.tar.xz
lz4-1:1.9.4-1-aarch64.pkg.tar.xz.sig
lzo-2.10-5-aarch64.pkg.tar.xz
lzo-2.10-5-aarch64.pkg.tar.xz.sig
m4-1.4.19-3-aarch64.pkg.tar.xz
m4-1.4.19-3-aarch64.pkg.tar.xz.sig
mailcap-2.1.54-1-any.pkg.tar.xz
mailcap-2.1.54-1-any.pkg.tar.xz.sig
make-4.4.1-2-aarch64.pkg.tar.xz
make-4.4.1-2-aarch64.pkg.tar.xz.sig
man-db-2.12.0-1-aarch64.pkg.tar.xz
man-db-2.12.0-1-aarch64.pkg.tar.xz.sig
manjaro-arm-keyring-20220210-1-any.pkg.tar.zst
manjaro-arm-keyring-20220210-1-any.pkg.tar.zst.sig
manjaro-keyring-20230719-2-any.pkg.tar.xz
manjaro-keyring-20230719-2-any.pkg.tar.xz.sig
mednafen-1.29.0-3-aarch64.pkg.tar.xz
mesa-23.1.8-1-aarch64.pkg.tar.zst
mesa-23.1.8-1-aarch64.pkg.tar.zst.sig
mpfr-4.2.1-1-aarch64.pkg.tar.xz
mpfr-4.2.1-1-aarch64.pkg.tar.xz.sig
mpg123-1.32.2-1-aarch64.pkg.tar.xz
mpg123-1.32.2-1-aarch64.pkg.tar.xz.sig
mtdev-1.1.6-2-aarch64.pkg.tar.xz
mtdev-1.1.6-2-aarch64.pkg.tar.xz.sig
mupdf-1.23.3-4-aarch64.pkg.tar.xz
mupdf-1.23.3-4-aarch64.pkg.tar.xz.sig
nano-7.2-1-aarch64.pkg.tar.xz
nano-7.2-1-aarch64.pkg.tar.xz.sig
nasm-2.16.01-1-aarch64.pkg.tar.xz
ncftp-3.2.6-5-aarch64.pkg.tar.xz
ncftp-3.2.6-5-aarch64.pkg.tar.xz.sig
ncurses-6.4_20230520-1-aarch64.pkg.tar.xz
ncurses-6.4_20230520-1-aarch64.pkg.tar.xz.sig
net-tools-2.10-2-aarch64.pkg.tar.xz
net-tools-2.10-2-aarch64.pkg.tar.xz.sig
nettle-3.9.1-1-aarch64.pkg.tar.xz
nettle-3.9.1-1-aarch64.pkg.tar.xz.sig
npth-1.6-4-aarch64.pkg.tar.xz
npth-1.6-4-aarch64.pkg.tar.xz.sig
nspr-4.35-1-aarch64.pkg.tar.xz
nspr-4.35-1-aarch64.pkg.tar.xz.sig
nss-3.93-1-aarch64.pkg.tar.xz
nss-3.93-1-aarch64.pkg.tar.xz.sig
ocl-icd-2.3.2-1-aarch64.pkg.tar.xz
ocl-icd-2.3.2-1-aarch64.pkg.tar.xz.sig
opencore-amr-0.1.6-1-aarch64.pkg.tar.xz
opencore-amr-0.1.6-1-aarch64.pkg.tar.xz.sig
openexr-3.2.1-1-aarch64.pkg.tar.xz
openexr-3.2.1-1-aarch64.pkg.tar.xz.sig
openjpeg2-2.5.0-3-aarch64.pkg.tar.xz
openjpeg2-2.5.0-3-aarch64.pkg.tar.xz.sig
openssh-9.4p1-4-aarch64.pkg.tar.xz
openssh-9.4p1-4-aarch64.pkg.tar.xz.sig
openssl-3.1.3-1-aarch64.pkg.tar.xz
openssl-3.1.3-1-aarch64.pkg.tar.xz.sig
opus-1.4-1-aarch64.pkg.tar.xz
opus-1.4-1-aarch64.pkg.tar.xz.sig
p11-kit-0.25.0-2-aarch64.pkg.tar.xz
p11-kit-0.25.0-2-aarch64.pkg.tar.xz.sig
pacman-6.0.2-2-aarch64.pkg.tar.zst
pacman-6.0.2-2-aarch64.pkg.tar.zst.sig
pacman-mirrors-4.23.2+3+g4148c3d-1-any.pkg.tar.zst
pacman-mirrors-4.23.2+3+g4148c3d-1-any.pkg.tar.zst.sig
pam-1.5.3-3-aarch64.pkg.tar.xz
pam-1.5.3-3-aarch64.pkg.tar.xz.sig
pambase-20230918-1-any.pkg.tar.xz
pambase-20230918-1-any.pkg.tar.xz.sig
pango-1:1.50.14-1-aarch64.pkg.tar.xz
pango-1:1.50.14-1-aarch64.pkg.tar.xz.sig
pangomm-2.46.3-1-aarch64.pkg.tar.xz
parted-3.6-1-aarch64.pkg.tar.xz
pciutils-3.10.0-1-aarch64.pkg.tar.xz
pciutils-3.10.0-1-aarch64.pkg.tar.xz.sig
pcre2-10.42-2-aarch64.pkg.tar.xz
pcre2-10.42-2-aarch64.pkg.tar.xz.sig
pcsclite-2.0.0-1-aarch64.pkg.tar.xz
pcsclite-2.0.0-1-aarch64.pkg.tar.xz.sig
perl-5.38.0-1-aarch64.pkg.tar.xz
perl-5.38.0-1-aarch64.pkg.tar.xz.sig
pinentry-1.2.1-2-aarch64.pkg.tar.xz
pinentry-1.2.1-2-aarch64.pkg.tar.xz.sig
pixman-0.42.2-1-aarch64.pkg.tar.xz
pixman-0.42.2-1-aarch64.pkg.tar.xz.sig
polkit-123-1-aarch64.pkg.tar.xz
polkit-123-1-aarch64.pkg.tar.xz.sig
poppler-23.08.0-1-aarch64.pkg.tar.xz
poppler-23.08.0-1-aarch64.pkg.tar.xz.sig
poppler-data-0.4.12-1-any.pkg.tar.xz
poppler-data-0.4.12-1-any.pkg.tar.xz.sig
popt-1.19-1-aarch64.pkg.tar.xz
popt-1.19-1-aarch64.pkg.tar.xz.sig
portaudio-1:19.7.0-2-aarch64.pkg.tar.xz
portaudio-1:19.7.0-2-aarch64.pkg.tar.xz.sig
potrace-1.16-2-aarch64.pkg.tar.xz
potrace-1.16-2-aarch64.pkg.tar.xz.sig
procps-ng-4.0.4-2-aarch64.pkg.tar.xz
procps-ng-4.0.4-2-aarch64.pkg.tar.xz.sig
psmisc-23.6-1-aarch64.pkg.tar.xz
psmisc-23.6-1-aarch64.pkg.tar.xz.sig
python-3.11.5-2-aarch64.pkg.tar.xz
python-3.11.5-2-aarch64.pkg.tar.xz.sig
python-certifi-2023.07.22-1-any.pkg.tar.xz
python-certifi-2023.07.22-1-any.pkg.tar.xz.sig
python-chardet-5.2.0-1-any.pkg.tar.xz
python-chardet-5.2.0-1-any.pkg.tar.xz.sig
python-idna-3.4-3-any.pkg.tar.xz
python-idna-3.4-3-any.pkg.tar.xz.sig
python-npyscreen-4.10.5-8-any.pkg.tar.zst
python-npyscreen-4.10.5-8-any.pkg.tar.zst.sig
python-requests-2.28.2-4-any.pkg.tar.xz
python-requests-2.28.2-4-any.pkg.tar.xz.sig
python-urllib3-1.26.15-1-any.pkg.tar.xz
python-urllib3-1.26.15-1-any.pkg.tar.xz.sig
rav1e-0.6.6-1-aarch64.pkg.tar.xz
rav1e-0.6.6-1-aarch64.pkg.tar.xz.sig
readline-8.2.001-2-aarch64.pkg.tar.xz
readline-8.2.001-2-aarch64.pkg.tar.xz.sig
screen-4.9.1-1-aarch64.pkg.tar.xz
screen-4.9.1-1-aarch64.pkg.tar.xz.sig
scrot-1.10-1-aarch64.pkg.tar.xz
sdl2-2.28.3-1-aarch64.pkg.tar.xz
sdl2-2.28.3-1-aarch64.pkg.tar.xz.sig
sed-4.9-3-aarch64.pkg.tar.xz
sed-4.9-3-aarch64.pkg.tar.xz.sig
serf-1.3.9-8-aarch64.pkg.tar.xz
serf-1.3.9-8-aarch64.pkg.tar.xz.sig
shadow-4.14.0-4-aarch64.pkg.tar.xz
shadow-4.14.0-4-aarch64.pkg.tar.xz.sig
shared-mime-info-2.2+13+ga2ffb28-1-aarch64.pkg.tar.xz
shared-mime-info-2.2+13+ga2ffb28-1-aarch64.pkg.tar.xz.sig
speex-1.2.1-1-aarch64.pkg.tar.xz
speex-1.2.1-1-aarch64.pkg.tar.xz.sig
speexdsp-1.2.1-1-aarch64.pkg.tar.xz
speexdsp-1.2.1-1-aarch64.pkg.tar.xz.sig
sqlite-3.43.1-1-aarch64.pkg.tar.xz
sqlite-3.43.1-1-aarch64.pkg.tar.xz.sig
srt-1.5.3-1-aarch64.pkg.tar.xz
srt-1.5.3-1-aarch64.pkg.tar.xz.sig
sshfs-3.7.3-1-aarch64.pkg.tar.xz
sshfs-3.7.3-1-aarch64.pkg.tar.xz.sig
subversion-1.14.2-10-aarch64.pkg.tar.xz
subversion-1.14.2-10-aarch64.pkg.tar.xz.sig
systemd-254.5-1-aarch64.pkg.tar.xz
systemd-254.5-1-aarch64.pkg.tar.xz.sig
systemd-libs-254.5-1-aarch64.pkg.tar.xz
systemd-libs-254.5-1-aarch64.pkg.tar.xz.sig
systemd-sysvcompat-254.5-1-aarch64.pkg.tar.xz
systemd-sysvcompat-254.5-1-aarch64.pkg.tar.xz.sig
t1lib-5.1.2-8-aarch64.pkg.tar.xz
t1lib-5.1.2-8-aarch64.pkg.tar.xz.sig
tar-1.35-1-aarch64.pkg.tar.xz
tar-1.35-1-aarch64.pkg.tar.xz.sig
terminus-font-4.49.1-6-any.pkg.tar.xz
terminus-font-4.49.1-6-any.pkg.tar.xz.sig
texlive-basic-2023.66594-19-any.pkg.tar.xz
texlive-basic-2023.66594-19-any.pkg.tar.xz.sig
texlive-bin-2023.66984-16-aarch64.pkg.tar.xz
texlive-bin-2023.66984-16-aarch64.pkg.tar.xz.sig
texlive-latex-2023.66594-19-any.pkg.tar.xz
texlive-latex-2023.66594-19-any.pkg.tar.xz.sig
texlive-latexextra-2023.66594-19-any.pkg.tar.xz
texlive-latexextra-2023.66594-19-any.pkg.tar.xz.sig
texlive-latexrecommended-2023.66594-19-any.pkg.tar.xz
texlive-latexrecommended-2023.66594-19-any.pkg.tar.xz.sig
texlive-pictures-2023.66594-19-any.pkg.tar.xz
texlive-pictures-2023.66594-19-any.pkg.tar.xz.sig
tpm2-tss-4.0.1-1-aarch64.pkg.tar.xz
tpm2-tss-4.0.1-1-aarch64.pkg.tar.xz.sig
tracker3-3.6.0-1-aarch64.pkg.tar.xz
tracker3-3.6.0-1-aarch64.pkg.tar.xz.sig
tzdata-2023c-2-aarch64.pkg.tar.xz
tzdata-2023c-2-aarch64.pkg.tar.xz.sig
util-linux-2.39.2-1-aarch64.pkg.tar.xz
util-linux-2.39.2-1-aarch64.pkg.tar.xz.sig
util-linux-libs-2.39.2-1-aarch64.pkg.tar.xz
util-linux-libs-2.39.2-1-aarch64.pkg.tar.xz.sig
v4l-utils-1.24.1-2-aarch64.pkg.tar.xz
v4l-utils-1.24.1-2-aarch64.pkg.tar.xz.sig
vid.stab-1.1.1-1-aarch64.pkg.tar.xz
vid.stab-1.1.1-1-aarch64.pkg.tar.xz.sig
vim-9.0.1882-1-aarch64.pkg.tar.xz
vim-9.0.1882-1-aarch64.pkg.tar.xz.sig
vim-runtime-9.0.1882-1-aarch64.pkg.tar.xz
vim-runtime-9.0.1882-1-aarch64.pkg.tar.xz.sig
vte-common-0.74.0-1-aarch64.pkg.tar.xz
vte3-0.74.0-1-aarch64.pkg.tar.xz
vulkan-icd-loader-1.3.263-1-aarch64.pkg.tar.xz
vulkan-icd-loader-1.3.263-1-aarch64.pkg.tar.xz.sig
wayland-1.22.0-1-aarch64.pkg.tar.xz
wayland-1.22.0-1-aarch64.pkg.tar.xz.sig
wget-1.21.4-1-aarch64.pkg.tar.xz
wget-1.21.4-1-aarch64.pkg.tar.xz.sig
wireless_tools-30.pre9-3-aarch64.pkg.tar.xz
wireless_tools-30.pre9-3-aarch64.pkg.tar.xz.sig
wmctrl-1.07-6-aarch64.pkg.tar.xz
wmctrl-1.07-6-aarch64.pkg.tar.xz.sig
woff2-1.0.2-4-aarch64.pkg.tar.xz
woff2-1.0.2-4-aarch64.pkg.tar.xz.sig
wpa_supplicant-2:2.10-8-aarch64.pkg.tar.xz
wpa_supplicant-2:2.10-8-aarch64.pkg.tar.xz.sig
x264-3:0.164.r3095.baee400-4-aarch64.pkg.tar.xz
x264-3:0.164.r3095.baee400-4-aarch64.pkg.tar.xz.sig
x265-3.5-3-aarch64.pkg.tar.xz
x265-3.5-3-aarch64.pkg.tar.xz.sig
xbitmaps-1.1.3-1-any.pkg.tar.xz
xbitmaps-1.1.3-1-any.pkg.tar.xz.sig
xcb-proto-1.16.0-1-any.pkg.tar.xz
xcb-proto-1.16.0-1-any.pkg.tar.xz.sig
xcb-util-0.4.1-1-aarch64.pkg.tar.xz
xcb-util-0.4.1-1-aarch64.pkg.tar.xz.sig
xcb-util-image-0.4.1-2-aarch64.pkg.tar.xz
xcb-util-image-0.4.1-2-aarch64.pkg.tar.xz.sig
xcb-util-keysyms-0.4.1-4-aarch64.pkg.tar.xz
xcb-util-keysyms-0.4.1-4-aarch64.pkg.tar.xz.sig
xcb-util-renderutil-0.3.10-1-aarch64.pkg.tar.xz
xcb-util-renderutil-0.3.10-1-aarch64.pkg.tar.xz.sig
xcb-util-wm-0.4.2-1-aarch64.pkg.tar.xz
xcb-util-wm-0.4.2-1-aarch64.pkg.tar.xz.sig
xclip-0.13-4-aarch64.pkg.tar.xz
xclip-0.13-4-aarch64.pkg.tar.xz.sig
xf86-input-libinput-1.4.0-1-aarch64.pkg.tar.xz
xf86-input-libinput-1.4.0-1-aarch64.pkg.tar.xz.sig
xf86-video-vesa-2.6.0-1-aarch64.pkg.tar.xz
xf86-video-vesa-2.6.0-1-aarch64.pkg.tar.xz.sig
xkeyboard-config-2.39-1-any.pkg.tar.xz
xkeyboard-config-2.39-1-any.pkg.tar.xz.sig
xorg-bdftopcf-1.1.1-1-aarch64.pkg.tar.xz
xorg-bdftopcf-1.1.1-1-aarch64.pkg.tar.xz.sig
xorg-docs-1.7.2-2-any.pkg.tar.xz
xorg-docs-1.7.2-2-any.pkg.tar.xz.sig
xorg-font-util-1.4.1-1-aarch64.pkg.tar.xz
xorg-font-util-1.4.1-1-aarch64.pkg.tar.xz.sig
xorg-fonts-100dpi-1.0.4-2-any.pkg.tar.xz
xorg-fonts-100dpi-1.0.4-2-any.pkg.tar.xz.sig
xorg-fonts-75dpi-1.0.4-1-any.pkg.tar.xz
xorg-fonts-75dpi-1.0.4-1-any.pkg.tar.xz.sig
xorg-fonts-alias-100dpi-1.0.5-1-any.pkg.tar.xz
xorg-fonts-alias-100dpi-1.0.5-1-any.pkg.tar.xz.sig
xorg-fonts-alias-75dpi-1.0.5-1-any.pkg.tar.xz
xorg-fonts-alias-75dpi-1.0.5-1-any.pkg.tar.xz.sig
xorg-fonts-encodings-1.0.7-1-any.pkg.tar.xz
xorg-fonts-encodings-1.0.7-1-any.pkg.tar.xz.sig
xorg-iceauth-1.0.9-1-aarch64.pkg.tar.xz
xorg-iceauth-1.0.9-1-aarch64.pkg.tar.xz.sig
xorg-mkfontscale-1.2.2-1-aarch64.pkg.tar.xz
xorg-mkfontscale-1.2.2-1-aarch64.pkg.tar.xz.sig
xorg-server-21.1.8-2-aarch64.pkg.tar.xz
xorg-server-21.1.8-2-aarch64.pkg.tar.xz.sig
xorg-server-common-21.1.8-2-aarch64.pkg.tar.xz
xorg-server-common-21.1.8-2-aarch64.pkg.tar.xz.sig
xorg-server-devel-21.1.8-2-aarch64.pkg.tar.xz
xorg-server-devel-21.1.8-2-aarch64.pkg.tar.xz.sig
xorg-server-xephyr-21.1.8-2-aarch64.pkg.tar.xz
xorg-server-xephyr-21.1.8-2-aarch64.pkg.tar.xz.sig
xorg-server-xnest-21.1.8-2-aarch64.pkg.tar.xz
xorg-server-xnest-21.1.8-2-aarch64.pkg.tar.xz.sig
xorg-server-xvfb-21.1.8-2-aarch64.pkg.tar.xz
xorg-server-xvfb-21.1.8-2-aarch64.pkg.tar.xz.sig
xorg-sessreg-1.1.3-1-aarch64.pkg.tar.xz
xorg-sessreg-1.1.3-1-aarch64.pkg.tar.xz.sig
xorg-setxkbmap-1.3.4-1-aarch64.pkg.tar.xz
xorg-setxkbmap-1.3.4-1-aarch64.pkg.tar.xz.sig
xorg-smproxy-1.0.7-1-aarch64.pkg.tar.xz
xorg-smproxy-1.0.7-1-aarch64.pkg.tar.xz.sig
xorg-util-macros-1.20.0-2-any.pkg.tar.xz
xorg-util-macros-1.20.0-2-any.pkg.tar.xz.sig
xorg-x11perf-1.6.2-1-aarch64.pkg.tar.xz
xorg-x11perf-1.6.2-1-aarch64.pkg.tar.xz.sig
xorg-xauth-1.1.2-1-aarch64.pkg.tar.xz
xorg-xauth-1.1.2-1-aarch64.pkg.tar.xz.sig
xorg-xbacklight-1.2.3-3-aarch64.pkg.tar.xz
xorg-xbacklight-1.2.3-3-aarch64.pkg.tar.xz.sig
xorg-xcmsdb-1.0.6-1-aarch64.pkg.tar.xz
xorg-xcmsdb-1.0.6-1-aarch64.pkg.tar.xz.sig
xorg-xcursorgen-1.0.8-1-aarch64.pkg.tar.xz
xorg-xcursorgen-1.0.8-1-aarch64.pkg.tar.xz.sig
xorg-xdpyinfo-1.3.4-1-aarch64.pkg.tar.xz
xorg-xdpyinfo-1.3.4-1-aarch64.pkg.tar.xz.sig
xorg-xdriinfo-1.0.7-1-aarch64.pkg.tar.xz
xorg-xdriinfo-1.0.7-1-aarch64.pkg.tar.xz.sig
xorg-xev-1.2.5-1-aarch64.pkg.tar.xz
xorg-xev-1.2.5-1-aarch64.pkg.tar.xz.sig
xorg-xgamma-1.0.7-1-aarch64.pkg.tar.xz
xorg-xgamma-1.0.7-1-aarch64.pkg.tar.xz.sig
xorg-xhost-1.0.9-1-aarch64.pkg.tar.xz
xorg-xhost-1.0.9-1-aarch64.pkg.tar.xz.sig
xorg-xinit-1.4.2-1-aarch64.pkg.tar.xz
xorg-xinit-1.4.2-1-aarch64.pkg.tar.xz.sig
xorg-xinput-1.6.4-1-aarch64.pkg.tar.xz
xorg-xinput-1.6.4-1-aarch64.pkg.tar.xz.sig
xorg-xkbcomp-1.4.6-1-aarch64.pkg.tar.xz
xorg-xkbcomp-1.4.6-1-aarch64.pkg.tar.xz.sig
xorg-xkbevd-1.1.5-1-aarch64.pkg.tar.xz
xorg-xkbevd-1.1.5-1-aarch64.pkg.tar.xz.sig
xorg-xkbutils-1.0.5-1-aarch64.pkg.tar.xz
xorg-xkbutils-1.0.5-1-aarch64.pkg.tar.xz.sig
xorg-xkill-1.0.6-1-aarch64.pkg.tar.xz
xorg-xkill-1.0.6-1-aarch64.pkg.tar.xz.sig
xorg-xlsatoms-1.1.4-1-aarch64.pkg.tar.xz
xorg-xlsatoms-1.1.4-1-aarch64.pkg.tar.xz.sig
xorg-xlsclients-1.1.5-1-aarch64.pkg.tar.xz
xorg-xlsclients-1.1.5-1-aarch64.pkg.tar.xz.sig
xorg-xmodmap-1.0.11-1-aarch64.pkg.tar.xz
xorg-xmodmap-1.0.11-1-aarch64.pkg.tar.xz.sig
xorg-xpr-1.1.0-1-aarch64.pkg.tar.xz
xorg-xpr-1.1.0-1-aarch64.pkg.tar.xz.sig
xorg-xprop-1.2.6-1-aarch64.pkg.tar.xz
xorg-xprop-1.2.6-1-aarch64.pkg.tar.xz.sig
xorg-xrandr-1.5.2-1-aarch64.pkg.tar.xz
xorg-xrandr-1.5.2-1-aarch64.pkg.tar.xz.sig
xorg-xrdb-1.2.2-1-aarch64.pkg.tar.xz
xorg-xrdb-1.2.2-1-aarch64.pkg.tar.xz.sig
xorg-xrefresh-1.0.7-1-aarch64.pkg.tar.xz
xorg-xrefresh-1.0.7-1-aarch64.pkg.tar.xz.sig
xorg-xset-1.2.5-1-aarch64.pkg.tar.xz
xorg-xset-1.2.5-1-aarch64.pkg.tar.xz.sig
xorg-xsetroot-1.1.3-1-aarch64.pkg.tar.xz
xorg-xsetroot-1.1.3-1-aarch64.pkg.tar.xz.sig
xorg-xvinfo-1.1.5-1-aarch64.pkg.tar.xz
xorg-xvinfo-1.1.5-1-aarch64.pkg.tar.xz.sig
xorg-xwayland-23.2.1-1-aarch64.pkg.tar.xz
xorg-xwayland-23.2.1-1-aarch64.pkg.tar.xz.sig
xorg-xwd-1.0.9-1-aarch64.pkg.tar.xz
xorg-xwd-1.0.9-1-aarch64.pkg.tar.xz.sig
xorg-xwininfo-1.1.6-1-aarch64.pkg.tar.xz
xorg-xwininfo-1.1.6-1-aarch64.pkg.tar.xz.sig
xorg-xwud-1.0.6-1-aarch64.pkg.tar.xz
xorg-xwud-1.0.6-1-aarch64.pkg.tar.xz.sig
xorgproto-2023.2-1-any.pkg.tar.xz
xorgproto-2023.2-1-any.pkg.tar.xz.sig
xterm-384-1-aarch64.pkg.tar.xz
xterm-384-1-aarch64.pkg.tar.xz.sig
xvidcore-1.3.7-2-aarch64.pkg.tar.xz
xvidcore-1.3.7-2-aarch64.pkg.tar.xz.sig
xz-5.4.4-1-aarch64.pkg.tar.xz
xz-5.4.4-1-aarch64.pkg.tar.xz.sig
zimg-3.0.5-1-aarch64.pkg.tar.xz
zimg-3.0.5-1-aarch64.pkg.tar.xz.sig
zlib-1:1.3-1-aarch64.pkg.tar.xz
zlib-1:1.3-1-aarch64.pkg.tar.xz.sig
zstd-1.5.5-1-aarch64.pkg.tar.xz
zstd-1.5.5-1-aarch64.pkg.tar.xz.sig
zziplib-0.13.72-2-aarch64.pkg.tar.xz
zziplib-0.13.72-2-aarch64.pkg.tar.xz.sig


acl 2.3.1-3
adobe-source-code-pro-fonts 2.042u+1.062i+1.026vf-1
adwaita-cursors 44.0-1
adwaita-icon-theme 44.0-1
alsa-lib 1.2.10-2
alsa-topology-conf 1.2.5.1-3
alsa-ucm-conf 1.2.10-2
alsa-utils 1.2.10-1
aom 3.7.0-1
apr 1.7.3-1
apr-util 1.6.3-1
arch-install-scripts 28-1
archlinux-keyring 20230918-1
archlinuxarm-keyring 20140119-2
argon2 20190702-5
at-spi2-core 2.50.0-1
attr 2.5.1-3
audit 3.1.2-1
avahi 1:0.8+r127+g55d783d-1
base 3-1
bash 5.1.016-4
binutils 2.38-5.1
brotli 1.1.0-1
bzip2 1.0.8-5
ca-certificates 20220905-1
ca-certificates-mozilla 3.93-1
ca-certificates-utils 20220905-1
cairo 1.18.0-1
cantarell-fonts 1:0.303.1-1
coreutils 9.3-1
cryptsetup 2.6.1-3
ctwm 4.1.0-1
curl 8.3.0-1
curlftpfs 0.9.2-8
dav1d 1.2.1-1
db 6.2.32-1
db5.3 5.3.28-4
dbus 1.14.10-1
dbus-glib 0.112-3
dconf 0.40.0-2
debootstrap 1.0.132-1
default-cursors 2-1
desktop-file-utils 0.26-2
device-mapper 2.03.22-2
dhcpcd 10.0.2-1
dnssec-anchors 20190629-3
duktape 2.7.0-6
dvisvgm 3.1.1-1
e2fsprogs 1.47.0-1
expat 2.5.0-1
feh 3.10-1
ffmpeg 2:6.0-11
file 5.45-1
filesystem 2023.01-1
findutils 4.9.0-3
firefox 118.0.1-1
flac 1.4.3-1
fltk 1.3.8-2
fontconfig 2:2.14.2-1
freetype2 2.13.2-1
fribidi 1.0.13-2
fuse-common 3.16.1-1
fuse2 2.9.9-4
fuse3 3.16.1-1
gawk 5.2.2-1
gc 8.2.4-1
gcc 12.1.0-2.1
gcc-libs 12.1.0-2.1
gd 2.3.3-7
gdbm 1.23-2
gdk-pixbuf2 2.42.10-2
gettext 0.22.2-1
ghostscript 10.02.0-1
giflib 5.2.1-2
glib-networking 1:2.78.0-1
glib2 2.78.0-2
glibc 2.35-5.1
gmp 6.3.0-1
gnu-free-fonts 20120503-8
gnupg 2.2.41-2
gnutls 3.8.1-1
gperftools 2.13-1
gpgme 1.22.0-1
gpm 1.20.7.r38.ge82d1a6-5
graphite 1:1.3.14-3
grep 3.11-1
groff 1.23.0-5
gsettings-desktop-schemas 44.0-1
gsm 1.0.22-1
gtk-update-icon-cache 1:4.12.3-1
gtk3 1:3.24.38-1
guile 3.0.9-1
gumbo-parser 0.12.1-1
gzip 1.13-2
harfbuzz 8.2.1-1
harfbuzz-icu 8.2.1-1
hicolor-icon-theme 0.17-3
hidapi 0.14.0-2
highway 1.0.7-1
hwdata 0.374-1
iana-etc 20230907-1
icu 73.2-2
ijs 0.35-5
imath 3.1.9-2
imlib2 1.12.1-1
iproute2 6.5.0-1
iptables 1:1.8.9-1
iputils 20221126-2
iso-codes 4.15.0-1
jack2 1.9.22-1
jbig2dec 0.19-1
jbigkit 2.1-7
json-c 0.17-1
json-glib 1.8.0-1
kbd 2.6.3-1
keyutils 1.6.3-2
kmod 30-3
krb5 1.20.1-1
l-smash 2.14.5-3
lame 3.100-4
lcms2 2.15-1
ldns 1.8.3-2
less 1:643-1
libarchive 3.7.2-1
libass 0.17.1-1
libassuan 2.5.6-1
libasyncns 1:0.8+r3+g68cd5af-2
libavc1394 0.5.4-6
libavif 1.0.1-1
libbluray 1.3.4-1
libbpf 1.2.2-1
libbs2b 3.1.0-8
libbsd 0.11.7-1
libcap 2.69-1
libcap-ng 0.8.3-2
libcloudproviders 0.3.4-1
libcolord 1.4.6-1
libcups 1:2.4.7-1
libdaemon 0.14-5
libdatrie 0.2.13-4
libde265 1.0.12-1
libdeflate 1.19-1
libdrm 2.4.116-1
libedit 20230828_3.1-1
libelf 0.189-3
libepoxy 1.5.10-2
libevdev 1.13.1-1
libevent 2.1.12-4
libexif 0.6.24-2
libffi 3.4.4-1
libfontenc 1.1.7-1
libgcrypt 1.10.2-1
libglvnd 1.6.0-1
libgpg-error 1.47-1
libgudev 238-1
libheif 1.16.2-1
libice 1.1.1-2
libidn 1.41-1
libidn2 2.3.4-3.1
libiec61883 1.2.0-7
libinput 1.24.0-1
libisl 0.26-1
libjpeg-turbo 3.0.0-1
libjxl 0.8.2-2
libksba 1.6.4-1
libldap 2.6.6-1.1
libmd 1.1.0-1
libmnl 1.0.5-1
libmodplug 0.8.9.0-5
libmpc 1.3.1-1
libmupdf 1.23.3-4
libnetfilter_conntrack 1.0.9-1
libnfnetlink 1.0.2-1
libnftnl 1.2.6-1
libnghttp2 1.56.0-1
libnl 3.8.0-1
libnsl 2.0.0-3
libogg 1.3.5-1
libomxil-bellagio 0.9.3-4
libopenmpt 0.7.3-1
libp11-kit 0.25.0-2
libpaper 2.1.1-1
libpcap 1.10.4-1
libpciaccess 0.17-1
libpipeline 1.5.7-1
libpng 1.6.40-2
libproxy 0.5.3-2
libpsl 0.21.2-1
libpulse 16.1-6
libraw1394 2.1.2-3
librsvg 2:2.57.0-1
libsamplerate 0.2.2-2
libsasl 2.1.28-4
libseccomp 2.5.4-2
libsecret 0.21.1-1
libsigsegv 2.14-2
libsm 1.2.4-1
libsndfile 1.2.2-1
libsoup3 3.4.3-1
libsoxr 0.1.3-3
libssh 0.10.5-1
libssh2 1.11.0-1
libstemmer 2.2.0-2
libsynctex 2023.66984-16
libsysprof-capture 3.48.0-4
libtasn1 4.19.0-1
libthai 0.1.29-3
libtheora 1.1.1-6
libtiff 4.6.0-1
libtirpc 1.3.3-2
libunistring 1.1-2
libunwind 1.6.2-2
libusb 1.0.26-2
libutempter 1.2.1-3
libutf8proc 2.8.0-1
libva 2.20.0-1
libvdpau 1.5-2
libverto 0.3.2-4
libvorbis 1.3.7-3
libvpx 1.13.0-2
libwacom 2.8.0-1
libwebp 1.3.2-1
libx11 1.8.6-1
libxau 1.0.11-2
libxaw 1.0.15-1
libxcb 1.16-1
libxcomposite 0.4.6-1
libxcrypt 4.4.36-1
libxcursor 1.2.1-3
libxcvt 0.1.2-1
libxdamage 1.1.6-1
libxdmcp 1.1.4-2
libxext 1.3.5-1
libxfixes 6.0.1-1
libxfont2 2.0.6-2
libxft 2.3.8-1
libxi 1.8.1-1
libxinerama 1.1.5-1
libxkbcommon 1.5.0-1
libxkbfile 1.1.2-1
libxml2 2.11.5-1
libxmu 1.1.4-1
libxpm 3.5.16-1
libxrandr 1.5.3-1
libxrender 0.9.11-1
libxshmfence 1.3.2-1
libxss 1.2.4-1
libxt 1.3.0-1
libxtst 1.2.4-1
libxv 1.0.12-1
libxxf86vm 1.1.5-1
libyuv r2322+3aebf69d-1.1
licenses 20230917-1
links 2.29-1
linux-api-headers 6.4-1
llvm-libs 16.0.6-1
lm_sensors 1:3.6.0.r41.g31d1f125-2
luit 20230201-1
lz4 1:1.9.4-1
lzo 2.10-5
m4 1.4.19-3
mailcap 2.1.54-1
make 4.4.1-2
man-db 2.12.0-1
manjaro-arm-keyring 20220210-1
manjaro-keyring 20230719-2
mesa 23.1.8-1
mpfr 4.2.1-1
mpg123 1.32.2-1
mtdev 1.1.6-2
mupdf 1.23.3-4
nano 7.2-1
ncftp 3.2.6-5
ncurses 6.4_20230520-1
net-tools 2.10-2
nettle 3.9.1-1
npth 1.6-4
nspr 4.35-1
nss 3.93-1
ocl-icd 2.3.2-1
opencore-amr 0.1.6-1
openexr 3.2.1-1
openjpeg2 2.5.0-3
openssh 9.4p1-4
openssl 3.1.3-1
opus 1.4-1
p11-kit 0.25.0-2
pacman 6.0.2-2
pacman-mirrors 4.23.2+3+g4148c3d-1
pam 1.5.3-3
pambase 20230918-1
pango 1:1.50.14-1
pciutils 3.10.0-1
pcre2 10.42-2
pcsclite 2.0.0-1
perl 5.38.0-1
pinentry 1.2.1-2
pixman 0.42.2-1
polkit 123-1
poppler 23.08.0-1
poppler-data 0.4.12-1
popt 1.19-1
portaudio 1:19.7.0-2
potrace 1.16-2
procps-ng 4.0.4-2
psmisc 23.6-1
python 3.11.5-2
python-certifi 2023.07.22-1
python-chardet 5.2.0-1
python-idna 3.4-3
python-npyscreen 4.10.5-8
python-requests 2.28.2-4
python-urllib3 1.26.15-1
rav1e 0.6.6-1
readline 8.2.001-2
screen 4.9.1-1
sdl2 2.28.3-1
sed 4.9-3
serf 1.3.9-8
shadow 4.14.0-4
shared-mime-info 2.2+13+ga2ffb28-1
speex 1.2.1-1
speexdsp 1.2.1-1
sqlite 3.43.1-1
srt 1.5.3-1
sshfs 3.7.3-1
subversion 1.14.2-10
systemd 254.5-1
systemd-libs 254.5-1
systemd-sysvcompat 254.5-1
t1lib 5.1.2-8
tar 1.35-1
terminus-font 4.49.1-6
texlive-basic 2023.66594-19
texlive-bin 2023.66984-16
texlive-latex 2023.66594-19
texlive-latexextra 2023.66594-19
texlive-latexrecommended 2023.66594-19
texlive-pictures 2023.66594-19
tpm2-tss 4.0.1-1
tracker3 3.6.0-1
tzdata 2023c-2
util-linux 2.39.2-1
util-linux-libs 2.39.2-1
v4l-utils 1.24.1-2
vid.stab 1.1.1-1
vim 9.0.1882-1
vim-runtime 9.0.1882-1
vulkan-icd-loader 1.3.263-1
wayland 1.22.0-1
wget 1.21.4-1
wireless_tools 30.pre9-3
wmctrl 1.07-6
woff2 1.0.2-4
wpa_supplicant 2:2.10-8
x264 3:0.164.r3095.baee400-4
x265 3.5-3
xbitmaps 1.1.3-1
xcb-proto 1.16.0-1
xcb-util 0.4.1-1
xcb-util-image 0.4.1-2
xcb-util-keysyms 0.4.1-4
xcb-util-renderutil 0.3.10-1
xcb-util-wm 0.4.2-1
xclip 0.13-4
xf86-input-libinput 1.4.0-1
xf86-video-vesa 2.6.0-1
xkeyboard-config 2.39-1
xorg-bdftopcf 1.1.1-1
xorg-docs 1.7.2-2
xorg-font-util 1.4.1-1
xorg-fonts-100dpi 1.0.4-2
xorg-fonts-75dpi 1.0.4-1
xorg-fonts-alias-100dpi 1.0.5-1
xorg-fonts-alias-75dpi 1.0.5-1
xorg-fonts-encodings 1.0.7-1
xorg-iceauth 1.0.9-1
xorg-mkfontscale 1.2.2-1
xorg-server 21.1.8-2
xorg-server-common 21.1.8-2
xorg-server-devel 21.1.8-2
xorg-server-xephyr 21.1.8-2
xorg-server-xnest 21.1.8-2
xorg-server-xvfb 21.1.8-2
xorg-sessreg 1.1.3-1
xorg-setxkbmap 1.3.4-1
xorg-smproxy 1.0.7-1
xorg-util-macros 1.20.0-2
xorg-x11perf 1.6.2-1
xorg-xauth 1.1.2-1
xorg-xbacklight 1.2.3-3
xorg-xcmsdb 1.0.6-1
xorg-xcursorgen 1.0.8-1
xorg-xdpyinfo 1.3.4-1
xorg-xdriinfo 1.0.7-1
xorg-xev 1.2.5-1
xorg-xgamma 1.0.7-1
xorg-xhost 1.0.9-1
xorg-xinit 1.4.2-1
xorg-xinput 1.6.4-1
xorg-xkbcomp 1.4.6-1
xorg-xkbevd 1.1.5-1
xorg-xkbutils 1.0.5-1
xorg-xkill 1.0.6-1
xorg-xlsatoms 1.1.4-1
xorg-xlsclients 1.1.5-1
xorg-xmodmap 1.0.11-1
xorg-xpr 1.1.0-1
xorg-xprop 1.2.6-1
xorg-xrandr 1.5.2-1
xorg-xrdb 1.2.2-1
xorg-xrefresh 1.0.7-1
xorg-xset 1.2.5-1
xorg-xsetroot 1.1.3-1
xorg-xvinfo 1.1.5-1
xorg-xwayland 23.2.1-1
xorg-xwd 1.0.9-1
xorg-xwininfo 1.1.6-1
xorg-xwud 1.0.6-1
xorgproto 2023.2-1
xterm 384-1
xvidcore 1.3.7-2
xz 5.4.4-1
zimg 3.0.5-1
zlib 1:1.3-1
zstd 1.5.5-1
zziplib 0.13.72-2
alsa-utils 1.2.10-1
arch-install-scripts 28-1
base 3-1
ctwm 4.1.0-1
curl 8.3.0-1
curlftpfs 0.9.2-8
debootstrap 1.0.132-1
dhcpcd 10.0.2-1
feh 3.10-1
firefox 118.0.1-1
fltk 1.3.8-2
gcc 12.1.0-2.1
less 1:643-1
links 2.29-1
m4 1.4.19-3
make 4.4.1-2
mpg123 1.32.2-1
mupdf 1.23.3-4
nano 7.2-1
ncftp 3.2.6-5
ncurses 6.4_20230520-1
net-tools 2.10-2
openssh 9.4p1-4
screen 4.9.1-1
sshfs 3.7.3-1
subversion 1.14.2-10
terminus-font 4.49.1-6
texlive-bin 2023.66984-16
texlive-latexextra 2023.66594-19
vim 9.0.1882-1
wget 1.21.4-1
wireless_tools 30.pre9-3
wmctrl 1.07-6
wpa_supplicant 2:2.10-8
xclip 0.13-4
xf86-video-vesa 2.6.0-1
xorg-bdftopcf 1.1.1-1
xorg-docs 1.7.2-2
xorg-font-util 1.4.1-1
xorg-fonts-100dpi 1.0.4-2
xorg-fonts-75dpi 1.0.4-1
xorg-fonts-encodings 1.0.7-1
xorg-iceauth 1.0.9-1
xorg-mkfontscale 1.2.2-1
xorg-server 21.1.8-2
xorg-server-common 21.1.8-2
xorg-server-devel 21.1.8-2
xorg-server-xephyr 21.1.8-2
xorg-server-xnest 21.1.8-2
xorg-server-xvfb 21.1.8-2
xorg-sessreg 1.1.3-1
xorg-setxkbmap 1.3.4-1
xorg-smproxy 1.0.7-1
xorg-x11perf 1.6.2-1
xorg-xauth 1.1.2-1
xorg-xbacklight 1.2.3-3
xorg-xcmsdb 1.0.6-1
xorg-xcursorgen 1.0.8-1
xorg-xdpyinfo 1.3.4-1
xorg-xdriinfo 1.0.7-1
xorg-xev 1.2.5-1
xorg-xgamma 1.0.7-1
xorg-xhost 1.0.9-1
xorg-xinit 1.4.2-1
xorg-xinput 1.6.4-1
xorg-xkbcomp 1.4.6-1
xorg-xkbevd 1.1.5-1
xorg-xkbutils 1.0.5-1
xorg-xkill 1.0.6-1
xorg-xlsatoms 1.1.4-1
xorg-xlsclients 1.1.5-1
xorg-xmodmap 1.0.11-1
xorg-xpr 1.1.0-1
xorg-xprop 1.2.6-1
xorg-xrandr 1.5.2-1
xorg-xrdb 1.2.2-1
xorg-xrefresh 1.0.7-1
xorg-xset 1.2.5-1
xorg-xsetroot 1.1.3-1
xorg-xvinfo 1.1.5-1
xorg-xwayland 23.2.1-1
xorg-xwd 1.0.9-1
xorg-xwininfo 1.1.6-1
xorg-xwud 1.0.6-1
xterm 384-1
